{
	"AMS": [
		"Employees Setup",
		"Policy Setup",
		"File Setup",
		"Daily Time Record",
		"Employees Credit Balance",
		"Change Shift",
		"Overtime Application",
		"Leave Cancellation Application",
		"Attendance Registration Application",
		"Leave Application",
		"CTO Application",
		"Office Authority Application",
		"Leave Monetization Application",
		"Change Shift Approval",
		"Overtime Approval",
		"Leave Cancellation Approval",
		"Attendance Registration Approval",
		"Leave Approval",
		"CTO's Approval",
		"Office Authority Approval",
		"Leave Monetization Approval",
		"AMS Reports"
	],
	"SPMS": [
		"Office Performance Scorecard [OPS]",
		"Division Performance Scorecard [DPS]",
		"Individual Performance Scorecard [IPS]"
	]
}